\relax 
\catcode`:\active
\catcode`;\active
\catcode`!\active
\catcode`?\active
\select@language{french}
\@writefile{toc}{\select@language{french}}
\@writefile{lof}{\select@language{french}}
\@writefile{lot}{\select@language{french}}
\@writefile{lof}{\contentsline {figure}{\numberline {1}{\ignorespaces Tests of Within-Subjects Effects}}{4}}
\@writefile{lof}{\contentsline {figure}{\numberline {2}{\ignorespaces Tests of Between-Subjects Effects}}{4}}
